
{
    "startHour":"9",
    "endHour":"20",
    "undergrad_tas":[
        {
            "name":"Aarin Chase",
            "email":"aarin.chase@stonybrook.edu"
        },
        {
            "name":"Ali Afzal",
            "email":"ali.afzal@stonybrook.edu"
        },
        {
            "name":"Anthony Roy",
            "email":"anthony.roy@stonybrook.edu"
        },
        {
            "name":"Bryan Robicheau",
            "email":"bryan.robicheau@stonybrook.edu"
        },
        {
            "name":"Calvin Cheng",
            "email":"calvin.cheng@stonybrook.edu"
        },
        {
            "name":"Chaeyoung Lee",
            "email":"chaeyoung.lee@stonybrook.edu"
        },
        {
            "name":"Hsiang-Ju Lai",
            "email":"hsiang-ju.lai@stonybrook.edu"
        },
        {
            "name":"Jacob Evans",
            "email":"jacob.evans@stonybrook.edu"
        },
        {
            "name":"James Hoffman",
            "email":"james.a.hoffman@stonybrook.edu"
        },
        {
            "name":"Jamie Kunzmann",
            "email":"jamie.kunzmann@stonybrook.edu"
        },
        {
            "name":"Jenny Li",
            "email":"jenny.li@stonybrook.edu"
        },
        {
            "name":"Jerrel Sogoni",
            "email":"jerrel.sogoni@stonybrook.edu"
        },
        {
            "name":"Michael Mathew",
            "email":"michael.mathew@stonybrook.edu"
        },
        {
            "name":"Milto Ndrenika",
            "email":"milto.ndrenika@stonybrook.edu"
        },
        {
            "name":"Muhammad R Islam",
            "email":"muhammad.r.islam@stonybrook.edu"
        },
        {
            "name":"Robert Trujillo",
            "email":"robert.trujillo@stonybrook.edu"
        },
        {
            "name":"Serge Crane",
            "email":"serge.crane@stonybrook.edu"
        },
        {
            "name":"Wonje Kang",
            "email":"wonje.kang@stonybrook.edu"
        },
        {
            "name":"Wonyong Jeong",
            "email":"wonyon.jeong@stonybrook.edu"
        },
        {
            "name":"Yu Zhao",
            "email":"yu.zhao@stonybrook.edu"
        }
    ],
    "grad_tas":[
        {
            "name":"Pakigya Tuladhar",
            "email":"Pakigya.Tuladhar@stonybrook.edu"
        }
    ],
    "officeHours":[
        {
            "day":"MONDAY",
            "time":"10_00am",
            "name":"Wonje Kang"
        },
        {
            "day":"MONDAY",
            "time":"10_00am",
            "name":"Wonyong Jeong"
        },
        {
            "day":"WEDNESDAY",
            "time":"10_00am",
            "name":"Calvin Cheng"
        },
        {
            "day":"WEDNESDAY",
            "time":"10_00am",
            "name":"Jenny Li"
        },
        {
            "day":"FRIDAY",
            "time":"10_00am",
            "name":"Jamie Kunzmann"
        },
        {
            "day":"FRIDAY",
            "time":"10_00am",
            "name":"Serge Crane"
        },
        {
            "day":"MONDAY",
            "time":"10_30am",
            "name":"Wonje Kang"
        },
        {
            "day":"MONDAY",
            "time":"10_30am",
            "name":"Wonyong Jeong"
        },
        {
            "day":"TUESDAY",
            "time":"10_30am",
            "name":"Jerrel Sogoni"
        },
        {
            "day":"WEDNESDAY",
            "time":"10_30am",
            "name":"Calvin Cheng"
        },
        {
            "day":"WEDNESDAY",
            "time":"10_30am",
            "name":"Jenny Li"
        },
        {
            "day":"FRIDAY",
            "time":"10_30am",
            "name":"Jamie Kunzmann"
        },
        {
            "day":"FRIDAY",
            "time":"10_30am",
            "name":"Serge Crane"
        },
        {
            "day":"MONDAY",
            "time":"11_00am",
            "name":"Wonje Kang"
        },
        {
            "day":"MONDAY",
            "time":"11_00am",
            "name":"Wonyong Jeong"
        },
        {
            "day":"TUESDAY",
            "time":"11_00am",
            "name":"Jerrel Sogoni"
        },
        {
            "day":"WEDNESDAY",
            "time":"11_00am",
            "name":"Calvin Cheng"
        },
        {
            "day":"WEDNESDAY",
            "time":"11_00am",
            "name":"Jenny Li"
        },
        {
            "day":"FRIDAY",
            "time":"11_00am",
            "name":"Jamie Kunzmann"
        },
        {
            "day":"FRIDAY",
            "time":"11_00am",
            "name":"Serge Crane"
        },
        {
            "day":"MONDAY",
            "time":"11_30am",
            "name":"Wonje Kang"
        },
        {
            "day":"MONDAY",
            "time":"11_30am",
            "name":"Wonyong Jeong"
        },
        {
            "day":"TUESDAY",
            "time":"11_30am",
            "name":"Robert Trujillo"
        },
        {
            "day":"TUESDAY",
            "time":"11_30am",
            "name":"Yu Zhao"
        },
        {
            "day":"WEDNESDAY",
            "time":"11_30am",
            "name":"Calvin Cheng"
        },
        {
            "day":"THURSDAY",
            "time":"11_30am",
            "name":"Yu Zhao"
        },
        {
            "day":"FRIDAY",
            "time":"11_30am",
            "name":"Jamie Kunzmann"
        },
        {
            "day":"FRIDAY",
            "time":"11_30am",
            "name":"Serge Crane"
        },
        {
            "day":"MONDAY",
            "time":"12_00pm",
            "name":"Calvin Cheng"
        },
        {
            "day":"MONDAY",
            "time":"12_00pm",
            "name":"Jenny Li"
        },
        {
            "day":"TUESDAY",
            "time":"12_00pm",
            "name":"Robert Trujillo"
        },
        {
            "day":"TUESDAY",
            "time":"12_00pm",
            "name":"Jerrel Sogoni"
        },
        {
            "day":"FRIDAY",
            "time":"12_00pm",
            "name":"Serge Crane"
        },
        {
            "day":"MONDAY",
            "time":"12_30pm",
            "name":"Calvin Cheng"
        },
        {
            "day":"MONDAY",
            "time":"12_30pm",
            "name":"Jenny Li"
        },
        {
            "day":"TUESDAY",
            "time":"12_30pm",
            "name":"Robert Trujillo"
        },
        {
            "day":"TUESDAY",
            "time":"12_30pm",
            "name":"Jerrel Sogoni"
        },
        {
            "day":"MONDAY",
            "time":"1_00pm",
            "name":"Calvin Cheng"
        },
        {
            "day":"MONDAY",
            "time":"1_00pm",
            "name":"Jenny Li"
        },
        {
            "day":"MONDAY",
            "time":"1_00pm",
            "name":"Robert Trujillo"
        },
        {
            "day":"TUESDAY",
            "time":"1_00pm",
            "name":"Jamie Kunzmann"
        },
        {
            "day":"TUESDAY",
            "time":"1_00pm",
            "name":"Ali Afzal"
        },
        {
            "day":"WEDNESDAY",
            "time":"1_00pm",
            "name":"Hsiang-Ju Lai"
        },
        {
            "day":"THURSDAY",
            "time":"1_00pm",
            "name":"Jamie Kunzmann"
        },
        {
            "day":"THURSDAY",
            "time":"1_00pm",
            "name":"Hsiang-Ju Lai"
        },
        {
            "day":"MONDAY",
            "time":"1_30pm",
            "name":"Calvin Cheng"
        },
        {
            "day":"MONDAY",
            "time":"1_30pm",
            "name":"Jenny Li"
        },
        {
            "day":"MONDAY",
            "time":"1_30pm",
            "name":"Robert Trujillo"
        },
        {
            "day":"TUESDAY",
            "time":"1_30pm",
            "name":"Jamie Kunzmann"
        },
        {
            "day":"TUESDAY",
            "time":"1_30pm",
            "name":"Ali Afzal"
        },
        {
            "day":"WEDNESDAY",
            "time":"1_30pm",
            "name":"Hsiang-Ju Lai"
        },
        {
            "day":"THURSDAY",
            "time":"1_30pm",
            "name":"Jamie Kunzmann"
        },
        {
            "day":"THURSDAY",
            "time":"1_30pm",
            "name":"Hsiang-Ju Lai"
        },
        {
            "day":"MONDAY",
            "time":"2_00pm",
            "name":"Robert Trujillo"
        },
        {
            "day":"MONDAY",
            "time":"2_00pm",
            "name":"Bryan Robicheau"
        },
        {
            "day":"TUESDAY",
            "time":"2_00pm",
            "name":"Ali Afzal"
        },
        {
            "day":"WEDNESDAY",
            "time":"2_00pm",
            "name":"Bryan Robicheau"
        },
        {
            "day":"THURSDAY",
            "time":"2_00pm",
            "name":"Anthony Roy"
        },
        {
            "day":"MONDAY",
            "time":"2_30pm",
            "name":"Bryan Robicheau"
        },
        {
            "day":"MONDAY",
            "time":"2_30pm",
            "name":"James Hoffman"
        },
        {
            "day":"TUESDAY",
            "time":"2_30pm",
            "name":"Anthony Roy"
        },
        {
            "day":"WEDNESDAY",
            "time":"2_30pm",
            "name":"Bryan Robicheau"
        },
        {
            "day":"WEDNESDAY",
            "time":"2_30pm",
            "name":"Yu Zhao"
        },
        {
            "day":"THURSDAY",
            "time":"2_30pm",
            "name":"Anthony Roy"
        },
        {
            "day":"FRIDAY",
            "time":"2_30pm",
            "name":"Jacob Evans"
        },
        {
            "day":"FRIDAY",
            "time":"2_30pm",
            "name":"Milto Ndrenika"
        },
        {
            "day":"MONDAY",
            "time":"3_00pm",
            "name":"Bryan Robicheau"
        },
        {
            "day":"MONDAY",
            "time":"3_00pm",
            "name":"James Hoffman"
        },
        {
            "day":"TUESDAY",
            "time":"3_00pm",
            "name":"Anthony Roy"
        },
        {
            "day":"WEDNESDAY",
            "time":"3_00pm",
            "name":"Bryan Robicheau"
        },
        {
            "day":"WEDNESDAY",
            "time":"3_00pm",
            "name":"Yu Zhao"
        },
        {
            "day":"THURSDAY",
            "time":"3_00pm",
            "name":"Anthony Roy"
        },
        {
            "day":"FRIDAY",
            "time":"3_00pm",
            "name":"Jacob Evans"
        },
        {
            "day":"FRIDAY",
            "time":"3_00pm",
            "name":"Milto Ndrenika"
        },
        {
            "day":"MONDAY",
            "time":"3_30pm",
            "name":"Bryan Robicheau"
        },
        {
            "day":"MONDAY",
            "time":"3_30pm",
            "name":"James Hoffman"
        },
        {
            "day":"TUESDAY",
            "time":"3_30pm",
            "name":"Anthony Roy"
        },
        {
            "day":"WEDNESDAY",
            "time":"3_30pm",
            "name":"Bryan Robicheau"
        },
        {
            "day":"THURSDAY",
            "time":"3_30pm",
            "name":"Anthony Roy"
        },
        {
            "day":"FRIDAY",
            "time":"3_30pm",
            "name":"Milto Ndrenika"
        },
        {
            "day":"MONDAY",
            "time":"4_00pm",
            "name":"James Hoffman"
        },
        {
            "day":"TUESDAY",
            "time":"4_00pm",
            "name":"Serge Crane"
        },
        {
            "day":"WEDNESDAY",
            "time":"4_00pm",
            "name":"Jacob Evans"
        },
        {
            "day":"THURSDAY",
            "time":"4_00pm",
            "name":"Muhammad R Islam"
        },
        {
            "day":"FRIDAY",
            "time":"4_00pm",
            "name":"Milto Ndrenika"
        },
        {
            "day":"TUESDAY",
            "time":"4_30pm",
            "name":"Serge Crane"
        },
        {
            "day":"WEDNESDAY",
            "time":"4_30pm",
            "name":"Jacob Evans"
        },
        {
            "day":"THURSDAY",
            "time":"4_30pm",
            "name":"Muhammad R Islam"
        },
        {
            "day":"TUESDAY",
            "time":"5_00pm",
            "name":"Serge Crane"
        },
        {
            "day":"THURSDAY",
            "time":"5_00pm",
            "name":"Muhammad R Islam"
        },
        {
            "day":"THURSDAY",
            "time":"5_00pm",
            "name":"Chaeyoung Lee"
        },
        {
            "day":"TUESDAY",
            "time":"5_30pm",
            "name":"Ali Afzal"
        },
        {
            "day":"THURSDAY",
            "time":"5_30pm",
            "name":"Muhammad R Islam"
        },
        {
            "day":"THURSDAY",
            "time":"5_30pm",
            "name":"Chaeyoung Lee"
        },
        {
            "day":"TUESDAY",
            "time":"6_00pm",
            "name":"Michael Mathew"
        },
        {
            "day":"WEDNESDAY",
            "time":"6_00pm",
            "name":"Aarin Chase"
        },
        {
            "day":"THURSDAY",
            "time":"6_00pm",
            "name":"Chaeyoung Lee"
        },
        {
            "day":"FRIDAY",
            "time":"6_00pm",
            "name":"Aarin Chase"
        },
        {
            "day":"TUESDAY",
            "time":"6_30pm",
            "name":"Michael Mathew"
        },
        {
            "day":"WEDNESDAY",
            "time":"6_30pm",
            "name":"Aarin Chase"
        },
        {
            "day":"THURSDAY",
            "time":"6_30pm",
            "name":"Chaeyoung Lee"
        },
        {
            "day":"FRIDAY",
            "time":"6_30pm",
            "name":"Aarin Chase"
        },
        {
            "day":"MONDAY",
            "time":"7_00pm",
            "name":"Hsiang-Ju Lai"
        },
        {
            "day":"TUESDAY",
            "time":"7_00pm",
            "name":"Michael Mathew"
        },
        {
            "day":"TUESDAY",
            "time":"7_00pm",
            "name":"Hsiang-Ju Lai"
        },
        {
            "day":"WEDNESDAY",
            "time":"7_00pm",
            "name":"Aarin Chase"
        },
        {
            "day":"FRIDAY",
            "time":"7_00pm",
            "name":"Aarin Chase"
        },
        {
            "day":"MONDAY",
            "time":"7_30pm",
            "name":"Hsiang-Ju Lai"
        },
        {
            "day":"TUESDAY",
            "time":"7_30pm",
            "name":"Michael Mathew"
        },
        {
            "day":"TUESDAY",
            "time":"7_30pm",
            "name":"Hsiang-Ju Lai"
        },
        {
            "day":"WEDNESDAY",
            "time":"7_30pm",
            "name":"Aarin Chase"
        },
        {
            "day":"FRIDAY",
            "time":"7_30pm",
            "name":"Aarin Chase"
        }
    ],
    "subject":"CSE",
    "number":"200",
    "semester":"Fall",
    "year":"2000",
    "title":"CSE 215",
    "instructorName":"Richard Mckenna",
    "instructorHome":"www.stonybrook.edu/~richard",
    "exportDirectory":"../Website/",
    "siteTemplate":"../TAManagerTester/public_html/",
    "stylesheet":"style.css",
    "use":[
        {
            "nav":"Home",
            "fileName":"index.html",
            "script":"HomeBuilder.js"
        },
        {
            "nav":"Projects",
            "fileName":"projects.html",
            "script":"ProjectsBuilder.js"
        },
        {
            "nav":"Schedule",
            "fileName":"schedule.html",
            "script":"ScheduleBuilder.js"
        },
        {
            "nav":"Syllabus",
            "fileName":"syllabus.html",
            "script":"SyllabusBuilder.js"
        }
    ],
    "Unused":[
        {
            "nav":"HWs",
            "fileName":"hws.html",
            "script":"HWsBuilder.js"
        }
    ],
    "recitations":[
        {
            "section":"01",
            "instructor":"Richard Mckenna",
            "dayTime":"2:00 Monday",
            "location":"Old CS 2110",
            "TA1":"Robert Trujillo",
            "TA2":"Micheal Mathew"
        },
        {
            "section":"02",
            "instructor":"Ritwik Banerjee",
            "dayTime":"4:15 Tuesday",
            "location":"Old CS 2110",
            "TA1":"Wonje Kang",
            "TA2":"Yu Zhao"
        },
        {
            "section":"03",
            "instructor":"Richard Mckenna",
            "dayTime":"5:30 Tuesday",
            "location":"Old CS 2110",
            "TA1":"Hsiang-Ju Lai",
            "TA2":"Calvin Cheng"
        }
    ],
    "startDateMonth":"1",
    "startDateDay":"1",
    "startDateYear":"2017",
    "endDateMonth":"5",
    "endDateDay":"19",
    "endDateYear":"2017",
    "schedules":[
        {
            "type":"Snow Days",
            "date":"03/21/2017",
            "time":"10:00am",
            "title":"Snow Day",
            "topic":"No Class",
            "link":"www.stonybrook.edu",
            "criteria":""
        },
        {
            "type":"Holiday",
            "date":"04/21/2017",
            "time":"9:00am",
            "title":"Weekend",
            "topic":"Homework Due",
            "link":"www.blackboard.stonybrook.edu",
            "criteria":""
        },
        {
            "type":"Holiday",
            "date":"04/22/2017",
            "time":"5:00pm",
            "title":"Lecture 20",
            "topic":"Reflection",
            "link":"www.blackboard.stonybrook.edu",
            "criteria":"need to know UML"
        },
        {
            "type":"Homework",
            "date":"04/24/2017",
            "time":"11:59pm",
            "title":"Homework",
            "topic":"Populating Data",
            "link":"www.blackboard.stonybrook.edu",
            "criteria":"need to know Java"
        }
    ],
    "teams":[
        {
            "name":"Afsheen",
            "color":"#00FFFF",
            "textColor":"#000000",
            "link":"www.yahoo.com"
        },
        {
            "name":"Chepang",
            "color":"#669966",
            "textColor":"#6699FF",
            "link":"www.google.com"
        },
        {
            "name":"Mersenne",
            "color":"#FFFFFF",
            "textColor":"#000000",
            "link":"www.gmail.com"
        },
        {
            "name":"MonkeyKing",
            "color":"#FF00FF",
            "textColor":"#000000",
            "link":"www.monkeyKing.com"
        },
        {
            "name":"void",
            "color":"#000000",
            "textColor":"#FFFFFF",
            "link":"www.hotmail.com"
        }
    ],
    "students":[
        {
            "firstName":"Farhan",
            "lastName":"Hyder",
            "team":"MonkeyKing",
            "role":"Sketcher"
        },
        {
            "firstName":"Pakigya",
            "lastName":"Tuladhar",
            "team":"Chepang",
            "role":"Researcher"
        },
        {
            "firstName":"Sandhya",
            "lastName":"Sharma",
            "team":"Chepang",
            "role":"Designer"
        },
        {
            "firstName":"Tsering",
            "lastName":"Namgyal",
            "team":"Chepang",
            "role":"Investor"
        }
    ]
}