
{
    "startHour":"0",
    "endHour":"23",
    "undergrad_tas":[
        {
            "name":"Pakigya Tuladhar",
            "email":"Pakigya@hotmail.com"
        },
        {
            "name":"Tsering Namgyal",
            "email":"Tsering.Namgyal@stonybrook.edu"
        }
    ],
    "grad_tas":[
        {
            "name":"Sandhya Sharma",
            "email":"Sandhya.Sharma@stonybrook.edu"
        }
    ],
    "officeHours":[
    ],
    "subject":"CSE",
    "number":"200",
    "semester":"Fall",
    "year":"2000",
    "title":"CSE 215",
    "instructorName":"Richard Mckenna",
    "instructorHome":"www.stonybrook.edu/~richard",
    "exportDirectory":"../Website/",
    "siteTemplate":"../TAManagerTester/public_html/",
    "stylesheet":"style.css",
    "use":[
        {
            "nav":"Home",
            "fileName":"index.html",
            "script":"HomeBuilder.js"
        },
        {
            "nav":"Projects",
            "fileName":"projects.html",
            "script":"ProjectsBuilder.js"
        },
        {
            "nav":"Schedule",
            "fileName":"schedule.html",
            "script":"ScheduleBuilder.js"
        },
        {
            "nav":"Syllabus",
            "fileName":"syllabus.html",
            "script":"SyllabusBuilder.js"
        }
    ],
    "Unused":[
        {
            "nav":"HWs",
            "fileName":"hws.html",
            "script":"HWsBuilder.js"
        }
    ],
    "recitations":[
        {
            "section":"01",
            "instructor":"Richard Mckenna",
            "dayTime":"2:00 Monday",
            "location":"Old CS 2110",
            "TA1":"Robert Trujillo",
            "TA2":"Micheal Mathew"
        },
        {
            "section":"02",
            "instructor":"Ritwik Banerjee",
            "dayTime":"4:15 Tuesday",
            "location":"Old CS 2110",
            "TA1":"Wonje Kang",
            "TA2":"Yu Zhao"
        },
        {
            "section":"03",
            "instructor":"Richard Mckenna",
            "dayTime":"5:30 Tuesday",
            "location":"Old CS 2110",
            "TA1":"Hsiang-Ju Lai",
            "TA2":"Calvin Cheng"
        }
    ],
    "startDateMonth":"1",
    "startDateDay":"1",
    "startDateYear":"2017",
    "endDateMonth":"5",
    "endDateDay":"19",
    "endDateYear":"2017",
    "schedules":[
        {
            "type":"Snow Days",
            "date":"03/21/2017",
            "time":"10:00am",
            "title":"Snow Day",
            "topic":"No Class",
            "link":"www.stonybrook.edu",
            "criteria":""
        },
        {
            "type":"Holiday",
            "date":"04/21/2017",
            "time":"9:00am",
            "title":"Weekend",
            "topic":"Homework Due",
            "link":"www.blackboard.stonybrook.edu",
            "criteria":""
        },
        {
            "type":"Holiday",
            "date":"04/22/2017",
            "time":"5:00pm",
            "title":"Lecture 20",
            "topic":"Reflection",
            "link":"www.blackboard.stonybrook.edu",
            "criteria":"need to know UML"
        },
        {
            "type":"Homework",
            "date":"04/24/2017",
            "time":"11:59pm",
            "title":"Homework",
            "topic":"Populating Data",
            "link":"www.blackboard.stonybrook.edu",
            "criteria":"need to know Java"
        }
    ],
    "teams":[
        {
            "name":"Afsheen",
            "color":"#00FFFF",
            "textColor":"#000000",
            "link":"www.yahoo.com"
        },
        {
            "name":"Chepang",
            "color":"#669966",
            "textColor":"#6699FF",
            "link":"www.google.com"
        },
        {
            "name":"Mersenne",
            "color":"#FFFFFF",
            "textColor":"#000000",
            "link":"www.gmail.com"
        },
        {
            "name":"MonkeyKing",
            "color":"#FF00FF",
            "textColor":"#000000",
            "link":"www.monkeyKing.com"
        },
        {
            "name":"void",
            "color":"#000000",
            "textColor":"#FFFFFF",
            "link":"www.hotmail.com"
        }
    ],
    "students":[
        {
            "firstName":"Farhan",
            "lastName":"Hyder",
            "team":"MonkeyKing",
            "role":"Sketcher"
        },
        {
            "firstName":"Pakigya",
            "lastName":"Tuladhar",
            "team":"Chepang",
            "role":"Researcher"
        },
        {
            "firstName":"Sandhya",
            "lastName":"Sharma",
            "team":"Chepang",
            "role":"Designer"
        },
        {
            "firstName":"Tsering",
            "lastName":"Namgyal",
            "team":"Chepang",
            "role":"Investor"
        }
    ]
}